Supply;Name;Upgrade;BaseNumber
0;SCV;;0
0;SCV;;0
0;SCV;;0
0;SCV;;0
0;Barracks;;0
0;Refinery;;0
0;SCV;;0
0;SCV;;0
0;Refinery;;0
0;SCV;;0
0;SCV;;0
0;SCV;;0
0;Reactor;Barracks;0
0;SupplyDepot;;0
0;SCV;;0
0;Factory;;0
0;Marine;;0
0;Marine;;0
0;SCV;;0
0;Marine;;0
0;Marine;;0
0;SCV;;0
0;Marine;;0
0;Marine;;0
0;Marine;;0
0;Marine;;0
0;TechLab;Factory;0
0;Barracks;;0
0;Marine;;0
0;Marine;;0
0;SiegeTank;;0
0;SCV;;0
0;Marine;;0
0;Marine;;0
0;Barracks;;0